<?xml version="1.0" encoding="UTF-8" standalone="no"?>
<!-- Created with Inkscape (http://www.inkscape.org/) -->

<svg
   width="34.958237mm"
   height="33.094666mm"
   viewBox="0 0 34.958237 33.094666"
   version="1.1"
   id="svg1"
   xmlns:xlink="http://www.w3.org/1999/xlink"
   xmlns="http://www.w3.org/2000/svg"
   xmlns:svg="http://www.w3.org/2000/svg">
  <defs
     id="defs1">
    <linearGradient
       id="linearGradient26">
      <stop
         style="stop-color:#fff25c;stop-opacity:1;"
         offset="0"
         id="stop27" />
      <stop
         style="stop-color:#e69500;stop-opacity:1;"
         offset="1"
         id="stop26" />
    </linearGradient>
    <linearGradient
       id="linearGradient21">
      <stop
         style="stop-color:#e66600;stop-opacity:1;"
         offset="0"
         id="stop21" />
      <stop
         style="stop-color:#e50000;stop-opacity:1;"
         offset="1"
         id="stop22" />
    </linearGradient>
    <pattern
       xlink:href="#Cubes"
       preserveAspectRatio="xMidYMid"
       id="pattern20"
       patternTransform="scale(0.01)"
       x="0"
       y="0" />
    <pattern
       patternUnits="userSpaceOnUse"
       width="142"
       height="123"
       patternTransform="scale(0.4)"
       id="Cubes"
       preserveAspectRatio="none"
       style="fill:#000000"
       x="0"
       y="0">
      <path
         id="path14"
         style="fill-opacity:0.6;stroke-width:2;stroke-miterlimit:10"
         d="M 0.00195313,0.001953 V 0.0039061 L 35.509766,20.503906 71.009766,0.0078124 106.50977,20.503906 142,0.0136718 V 0.001953 Z" />
      <path
         id="path16"
         style="fill-opacity:0.3;stroke-width:2;stroke-miterlimit:10"
         d="m 35.503902,61.5 0.0039,0.002 v 41 L 0,123.00195 V 81.998047 Z M 142.01171,0 l 0.004,0.002 v 41 l -35.5079,20.499953 V 20.498047 Z m -71.000002,0 0.0039,0.002 v 41 L 35.507806,61.501953 V 20.498047 Z m 35.492192,61.5 0.004,0.002 v 41 L 71,123.00195 V 81.998047 Z" />
      <path
         id="path18"
         style="fill-opacity:1;stroke-width:2;stroke-miterlimit:10"
         d="m 106.49609,61.5 -0.004,0.002 v 41 L 142,123.00195 V 81.998047 Z M 71.0039,0 71,0.002 v 41 l 35.50781,20.499953 V 20.498047 Z m -71,0 L 0,0.002 v 41 L 35.507806,61.501953 V 20.498047 Z m 35.492194,61.5 -0.0039,0.002 v 41 L 71,123.00195 V 81.998047 Z" />
      <path
         id="path20"
         style="fill-opacity:0.6;stroke-width:2;stroke-miterlimit:10"
         d="m 70.998047,41.001953 -35.5,20.496094 L 0,41.003906 v 40.998047 l 0.00195313,0.002 35.49999987,-20.496094 35.5,20.496094 L 106.50195,61.507812 142,82.001953 V 41.003906 l -0.002,-0.002 -35.5,20.496094 z" />
      <path
         id="path26"
         style="fill-opacity:0.6;stroke-width:2;stroke-miterlimit:10"
         d="M 35.505859,102.50195 0.00195313,123 v 0.002 H 142 v -0.008 l -35.49414,-20.49219 -35.500001,20.49609 z" />
    </pattern>
    <linearGradient
       id="linearGradient6">
      <stop
         style="stop-color:#ffffff;stop-opacity:1;"
         offset="0"
         id="stop6" />
      <stop
         style="stop-color:#d8d8d8;stop-opacity:1;"
         offset="1"
         id="stop7" />
    </linearGradient>
    <linearGradient
       xlink:href="#linearGradient6"
       id="linearGradient7"
       x1="57.525631"
       y1="36.63591"
       x2="57.525631"
       y2="59.743191"
       gradientUnits="userSpaceOnUse" />
    <radialGradient
       xlink:href="#linearGradient21"
       id="radialGradient22"
       cx="43.040627"
       cy="43.320381"
       fx="43.040627"
       fy="43.320381"
       r="1.9557028"
       gradientUnits="userSpaceOnUse" />
    <radialGradient
       xlink:href="#linearGradient26"
       id="radialGradient27"
       cx="31.970329"
       cy="47.002487"
       fx="31.970329"
       fy="47.002487"
       r="4.0474954"
       gradientUnits="userSpaceOnUse" />
  </defs>
  <g
     id="layer1"
     style="display:inline"
     transform="matrix(0.99851793,0,0,1.6538959,-39.935663,-66.14746)">
    <rect
       style="display:inline;fill:url(#linearGradient7);stroke:#000000;stroke-width:0.4988;stroke-dasharray:none;stroke-opacity:1"
       id="rect3"
       width="34.51133"
       height="19.511326"
       x="40.244335"
       y="40.244335" />
    <path
       style="display:inline;fill:none;fill-opacity:0.60012;stroke:#000000;stroke-width:0.4988;stroke-dasharray:none;stroke-opacity:1"
       d="M 40.862864,40.351482 57.25772,52.583465 74.168139,40.322774 Z"
       id="path2" />
  </g>
  <g
     id="layer4"
     style="display:none"
     transform="translate(-40.020875,-39.850802)">
    <path
       style="opacity:1;fill:url(#radialGradient22);stroke:#a1a1a1;stroke-width:0.1;stroke-dasharray:none;stroke-opacity:1"
       id="path8"
       d="m 43.455757,44.915427 -0.428744,0.299367 -0.424396,-0.305498 -0.520986,0.04489 -0.214789,-0.476767 -0.473632,-0.221619 0.05237,-0.520287 -0.299367,-0.428743 0.305498,-0.424396 -0.04489,-0.520987 0.476768,-0.214789 0.221618,-0.473631 0.520287,0.05237 0.428744,-0.299368 0.424396,0.305498 0.520986,-0.04489 0.214789,0.476767 0.473632,0.221619 -0.05237,0.520287 0.299367,0.428743 -0.305497,0.424397 0.04489,0.520986 -0.476768,0.214789 -0.221618,0.473631 z"
       transform="translate(-0.20922582,-0.46691638)" />
    <rect
       style="opacity:1;fill:url(#pattern20);fill-opacity:1;stroke:#a1a1a1;stroke-width:0.2;stroke-dasharray:0.1, 0.1;stroke-dashoffset:0;stroke-opacity:1"
       id="rect8"
       width="2.7967701"
       height="4.5252686"
       x="70.847168"
       y="41.173355" />
    <g
       id="g26">
      <path
         style="opacity:1;fill:#e6be00;fill-opacity:1;stroke:#a1a1a1;stroke-width:0.1;stroke-dasharray:none;stroke-opacity:1"
         d="m 45.81888,41.477541 h 6.255101"
         id="path9" />
      <path
         style="opacity:1;fill:#e6be00;fill-opacity:1;stroke:#a1a1a1;stroke-width:0.1;stroke-dasharray:none;stroke-opacity:1"
         d="m 45.81888,42.221554 h 6.255101"
         id="path10" />
      <path
         style="opacity:1;fill:#e6be00;fill-opacity:1;stroke:#a1a1a1;stroke-width:0.1;stroke-dasharray:none;stroke-opacity:1"
         d="m 45.81888,43.006938 h 6.255101"
         id="path11" />
    </g>
    <g
       id="g25"
       transform="translate(0,0.96972234)">
      <path
         style="opacity:1;fill:#e6be00;fill-opacity:1;stroke:#6d6d6d;stroke-width:0.2;stroke-dasharray:0.2, 0.2;stroke-dashoffset:0;stroke-opacity:1"
         d="M 51.023472,49.08124 H 64.157698"
         id="path22" />
      <path
         style="opacity:1;fill:#e6be00;fill-opacity:1;stroke:#6d6d6d;stroke-width:0.2;stroke-dasharray:0.2, 0.2;stroke-dashoffset:0;stroke-opacity:1"
         d="M 51.023472,49.980055 H 64.157698"
         id="path23" />
      <path
         style="opacity:1;fill:#e6be00;fill-opacity:1;stroke:#6d6d6d;stroke-width:0.2;stroke-dasharray:0.2, 0.2;stroke-dashoffset:0;stroke-opacity:1"
         d="M 51.023472,50.910075 H 64.157698"
         id="path24" />
      <path
         style="opacity:1;fill:#e6be00;fill-opacity:1;stroke:#6d6d6d;stroke-width:0.2;stroke-dasharray:0.2, 0.2;stroke-dashoffset:0;stroke-opacity:1"
         d="M 51.023472,51.988736 H 64.157698"
         id="path25" />
    </g>
  </g>
  <g
     id="layer2"
     style="display:none"
     transform="translate(-40.020875,-39.850802)">
    <path
       style="display:inline;opacity:1;fill:url(#radialGradient27);stroke:#a1a1a1;stroke-width:0.0999084;stroke-dasharray:none;stroke-opacity:1"
       id="path7"
       d="m 35.055442,49.598629 -1.284827,-0.01733 -0.426571,1.212072 -1.104026,-0.657424 -0.975457,0.836399 -0.627404,-1.121358 -1.26297,0.236614 0.01733,-1.284827 -1.212071,-0.426571 0.657423,-1.104026 -0.836399,-0.975457 1.121359,-0.627404 -0.236614,-1.26297 1.284826,0.01733 0.426571,-1.212071 1.104027,0.657423 0.975457,-0.836399 0.627403,1.121359 1.26297,-0.236615 -0.01733,1.284827 1.212072,0.426571 -0.657424,1.104027 0.836399,0.975457 -1.121358,0.627403 z"
       transform="matrix(1.3978759,0,0,1.3978759,12.794852,-7.3686826)" />
  </g>
  <g
     id="layer3"
     style="display:inline"
     transform="translate(-40.020875,-39.850802)">
    <path
       id="path3"
       style="display:inline;opacity:0.5;mix-blend-mode:lighten;fill:#ffffff;fill-opacity:0.557457;stroke:none;stroke-width:0.12527;stroke-dasharray:none"
       d="m 40.244572,40.244572 v 14.668247 a 22.328133,17.829868 0 0 0 17.3762,6.668342 22.328133,17.829868 0 0 0 17.134872,-6.448578 V 40.244572 Z" />
  </g>
</svg>
